{
    "$schema": "../../../node_modules/@ind-studio/common/assets/schemas/scada.schema.json",
    "trend": {
        "idIndStudioServer": "1",
        "plant": "MP1",
        "workCenterCode": "LN1",
        "trendSamples": 2000,
        "webApiUrl": "http://127.0.0.1:9000/api"
    }
}
